<?xml version="1.0" encoding="utf-8"?>
<!-- Generator: Adobe Illustrator 23.1.1, SVG Export Plug-In . SVG Version: 6.00 Build 0)  -->
<svg version="1.1" id="Laag_1" xmlns="http://www.w3.org/2000/svg" xmlns:xlink="http://www.w3.org/1999/xlink" x="0px" y="0px"
	 viewBox="0 0 150 150" style="enable-background:new 0 0 150 150;" xml:space="preserve">
<style type="text/css">
	.st0{fill:#EE7C03;}
</style>
<g>
	<path class="st0" d="M75.8,15.4c-31,0-56.2,25.2-56.2,56.2c0,16.3,6.9,30.9,17.9,41.2c2.1,2-0.1,15.6,2.3,17.2
		c0.5,0.4,1.1,0.7,1.6,1c2.7,1.7,10.1-8.6,13.1-7.4c6.6,2.7,13.7,4.2,21.3,4.2c31,0,56.2-25.2,56.2-56.2S106.9,15.4,75.8,15.4z
		 M76.1,121c-7.3,0-14.2-1.6-20.4-4.4c-2.5-1.1-9.8,9.8-12,8.3c-2.3-1.6,0.4-15.6-1.7-17.6C32.8,98.4,27,85.8,27,71.9
		c0-27.1,22-49.1,49.1-49.1c27.1,0,49.1,22,49.1,49.1C125.2,99,103.3,121,76.1,121z"/>
	<path class="st0" d="M113.4,54.4c-2.9-2.5-8,0.9-8,0.9l-15.5,8.9c0,0-2.5,2.5-6.7-1.3c-4.2-3.8-10.3-9.4-10.3-9.4s-3.8-3.1-8.1,1.6
		L40,81c0,0-3.6,4.9-0.4,7.4c3.3,2.5,8-0.9,8-0.9l16.3-9.4c0,0,2.3-1.6,4,0.4c1.6,2,11.7,10.5,11.7,10.5s4.2,2,8-1.6
		s26.6-26.2,26.6-26.2S116.3,57,113.4,54.4z M102.2,65.5c0,0-14.1,14.3-16.4,16.4c-2.3,2.2-4.3,0.7-4.3,0.7s-9-8.1-11.6-10.3
		c-2.5-2.2-5.8,0.2-5.8,0.2s-12.3,7.8-15.2,8.9c-2.9,1.1-1.1-2-1.1-2l19.9-18.8c2-2.2,3.3-0.9,3.3-0.9s7,6.3,10.3,9.4
		c3.3,3.1,7.8,1.4,7.8,1.4s8-5.6,11.2-6.7C103.5,62.8,102.2,65.5,102.2,65.5z"/>
</g>
</svg>
