<?xml version="1.0" encoding="utf-8"?>
<!-- Generator: Adobe Illustrator 23.1.1, SVG Export Plug-In . SVG Version: 6.00 Build 0)  -->
<svg version="1.1" id="Laag_1" xmlns="http://www.w3.org/2000/svg" xmlns:xlink="http://www.w3.org/1999/xlink" x="0px" y="0px"
	 viewBox="0 0 150 150" style="enable-background:new 0 0 150 150;" xml:space="preserve">
<style type="text/css">
	.st0{fill:#EF7D00;}
</style>
<path class="st0" d="M135.98,59.93V34.82c0-5.4-4.42-9.82-9.82-9.82h-2.71H30.64h-2.71c-5.4,0-9.82,4.42-9.82,9.82v25.11l-0.01-0.01
	v41.69c0,5.4,4.42,9.83,9.82,9.83h0.01h33.39c0,2.8-1.13,5.36-2.18,7.48c-0.66,1.32-1.29,2.47-1.58,3.4
	c-0.11,0.34-0.17,0.64-0.17,0.91c0,2.15,1.78,3.93,3.93,3.93h31.43c2.15,0,3.93-1.78,3.93-3.93c0-0.27-0.06-0.57-0.17-0.91
	c-0.28-0.93-0.91-2.08-1.58-3.4c-1.05-2.12-2.18-4.68-2.18-7.48h33.39h0.01c5.4,0,9.82-4.42,9.82-9.83L135.98,59.93L135.98,59.93z
	 M27.94,87.86c-1.05,0-1.96-0.92-1.96-1.96V34.82c0-1.05,0.92-1.97,1.96-1.97h10.56h77.1h10.56c1.05,0,1.96,0.92,1.96,1.97V85.9
	c0,1.04-0.92,1.96-1.96,1.96H27.94z"/>
<g>
	<path class="st0" d="M96.5,72.61h6.03V61.64c0-2.07,0.47-4.21,3.45-4.21c2.69,0,3.16,1.96,3.16,4.18v11.01h6.03V60.01
		c0-2.72-0.69-8.24-7.48-8.24c-3.6,0-4.87,1.85-5.56,2.83v-2.14H96.5V72.61z M91.84,52.45h-6.03V72.4c0,1.45-0.04,3.05-2.14,3.05
		h-0.8v4.57h1.49c6.61,0,7.48-3.16,7.48-7.84V52.45z M85.82,50.3h6.03v-4.57h-6.03V50.3z M74.44,72.61h6.03V52.45h-6.03V72.61z
		 M74.44,50.3h6.03v-4.57h-6.03V50.3z M39.24,72.61h6.03V61.89c0-0.62,0-1.71,0.44-2.69c0.44-0.98,1.27-1.78,2.98-1.78
		c1.53,0,2.26,0.76,2.66,1.71c0.36,0.91,0.36,1.96,0.36,2.51v10.97h6.03V61.6c0-0.58,0-1.6,0.44-2.51c0.4-0.91,1.24-1.67,2.91-1.67
		c1.57,0,2.33,0.69,2.69,1.63c0.4,0.91,0.4,2,0.4,2.83v10.72h6.03V61.6c0-4.47-0.29-5.81-2.18-7.81c-1.63-1.71-3.88-2.03-5.3-2.03
		c-2.11,0-3.75,0.76-4.94,1.85c-0.58,0.51-1.05,1.13-1.45,1.74c-0.36-0.69-0.76-1.24-1.2-1.67c-1.49-1.56-3.23-1.93-4.61-1.93
		c-2.11,0-3.53,0.69-4.4,1.42c-0.87,0.69-1.24,1.41-1.24,1.41v-2.14h-5.63V72.61z"/>
</g>
</svg>
