<?xml version="1.0" encoding="utf-8"?>
<!-- Generator: Adobe Illustrator 23.1.1, SVG Export Plug-In . SVG Version: 6.00 Build 0)  -->
<svg version="1.1" id="Laag_1" xmlns="http://www.w3.org/2000/svg" xmlns:xlink="http://www.w3.org/1999/xlink" x="0px" y="0px"
	 viewBox="0 0 150 150" style="enable-background:new 0 0 150 150;" xml:space="preserve">
<style type="text/css">
	.st0{fill:#EF7D00;}
</style>
<g>
	<g>
		<path class="st0" d="M66.6,124.91c0.05-0.94-1.25-6.64-1.25-6.64c-0.54-2.32-2.83-3.76-5.15-3.23l-20.96,4.83
			c-2.33,0.54-3.76,2.83-3.23,5.16l1.19,5.38c0.52,2.33,2.81,3.78,5.14,3.26l20.99-4.7C65.28,128.52,66.54,126.83,66.6,124.91z
			 M41.6,129c-1.39-0.2-2.38-1.53-2.17-2.92c0.2-1.4,1.53-2.38,2.92-2.17c1.4,0.2,2.38,1.53,2.17,2.92
			C44.32,128.22,42.99,129.21,41.6,129z"/>
		<g>
			<path class="st0" d="M59.75,90.37c2.52-4.1,0.82-9.33,0.82-9.33c-1.86-4.78-3.57-7.27-5.34-8.88l0.02-0.01l-0.48-0.32
				c-2.52-1.63-6.74-4.36-10.03-9.91c-3.44-5.8-8.16-10.08-8.21-10.12c-2.42-1.71-5.12-0.61-5.48-0.25
				c-0.11,0.14-0.4,0.48,0.02,1.44c0.17,0.3,0.53,1,1.09,2.02l0.2,0.37c9.01,16.36,11.76,23.53,10.15,26.46l-2.68-1.47
				c0.64-1.17-0.6-6.19-10.15-23.52l-0.2-0.36c-0.67-1.21-1.12-2.06-1.23-2.33c-0.98-2.28-0.13-3.84,0.47-4.56
				c0.43-0.51,1.25-1,2.28-1.34c0.02-4.16-0.01-13.07,0.16-19.58c0.22-8.14-7.1-5.57-7.1-5.57l0.03,2.74
				c-2.89-0.01-3.68,2.05-3.68,2.05c2.23,9.37-5.08,40.87-4.58,43.27c0.5,2.4,6.29,9.01,13.87,18.99c7.58,9.98,7.5,20.1,6.25,25.81
				l24.13-5.64C57.72,97.89,59.75,90.37,59.75,90.37z"/>
			<polygon class="st0" points="50.95,69.45 50.95,69.45 50.95,69.44 			"/>
		</g>
	</g>
	<g>
		<path class="st0" d="M107.61,134.16c2.3,0.63,4.66-0.7,5.29-3l1.45-5.32c0.65-2.3-0.68-4.66-2.98-5.31l-20.71-5.83
			c-2.3-0.65-4.66,0.68-5.3,2.97c0,0-1.52,5.23-1.57,6.57c-0.03,1.91,1.15,3.67,3.08,4.2L107.61,134.16z M105.75,127.22
			c-0.14-1.4,0.91-2.68,2.31-2.81c1.4-0.14,2.68,0.91,2.81,2.31c0.14,1.4-0.91,2.68-2.31,2.81
			C107.16,129.67,105.89,128.62,105.75,127.22z"/>
		<path class="st0" d="M114.86,116.78c-0.97-5.77-0.56-15.88,7.49-25.48c8.05-9.6,14.16-15.92,14.77-18.3
			c0.61-2.37-5.17-34.2-2.49-43.44c0,0-0.69-2.09-3.58-2.22l0.16-2.73c0,0-7.19-2.92-7.36,5.22c-0.14,6.51-0.61,15.42-0.78,19.57
			c1.02,0.38,1.82,0.91,2.22,1.44c0.56,0.74,1.33,2.31,0.23,4.61c-0.08,0.18-0.51,0.9-1.15,1.94l-0.39,0.64
			c-10.37,16.86-11.86,21.81-11.27,23l-2.75,1.34c-1.48-3.04,1.5-9.83,11.42-25.94l0.39-0.64c0.51-0.83,0.88-1.42,0.99-1.64
			c0.49-0.98,0.21-1.33,0.09-1.48c-0.33-0.37-2.97-1.6-5.61,0.09c-0.01,0.02-4.86,4.04-8.55,9.62c-3.56,5.39-7.91,7.91-10.5,9.42
			l-0.49,0.29l0.02,0.02c-1.85,1.53-3.67,3.93-5.76,8.61c0,0-1.95,5.15,0.36,9.36c0,0,1.66,7.61-1.28,19.91L114.86,116.78z"/>
	</g>
</g>
<path class="st0" d="M102.45,59.27v6.19H50.52v-6.19l17.31-11.12v-4.33c-1.07,0-2.06-1.07-2.96-3.22c-0.91-2.15-1.36-3.96-1.36-5.43
	v-8.66c0-3.58,1.27-6.64,3.81-9.17c2.54-2.54,5.6-3.81,9.17-3.81c3.58,0,6.64,1.27,9.17,3.81c2.54,2.54,3.81,5.6,3.81,9.17v8.66
	c0,1.47-0.45,3.28-1.36,5.43c-0.91,2.15-1.9,3.22-2.96,3.22v4.33L102.45,59.27z"/>
</svg>
