<svg width="30" height="29" viewBox="0 0 30 29" fill="none" xmlns="http://www.w3.org/2000/svg">
<path d="M12 27.3369C12 27.3369 13.5003 27.6636 15 27.6636C16.4997 27.6636 18 27.3369 18 27.3369" stroke="#F5821F" stroke-width="2" stroke-linecap="round" stroke-linejoin="round"/>
<path fill-rule="evenodd" clip-rule="evenodd" d="M15 5C15.8284 5 16.5 4.32843 16.5 3.5C16.5 2.67157 15.8284 2 15 2C14.1716 2 13.5 2.67157 13.5 3.5C13.5 4.32843 14.1716 5 15 5Z" fill="#F5821F"/>
<path fill-rule="evenodd" clip-rule="evenodd" d="M18.4961 0.877594C19.1628 0.488711 20 0.969583 20 1.74137V4.50034C20 5.21391 19.274 5.69787 18.6154 5.42341L14.9282 3.88709C14.5469 3.72823 14.5118 3.20178 14.8686 2.99366L18.4961 0.877594Z" fill="#F5821F"/>
<path fill-rule="evenodd" clip-rule="evenodd" d="M11.5039 0.877594C10.8372 0.488711 10 0.969583 10 1.74137V4.50034C10 5.21391 10.726 5.69787 11.3846 5.42341L15.0718 3.88709C15.4531 3.72823 15.4882 3.20178 15.1314 2.99366L11.5039 0.877594Z" fill="#F5821F"/>
<rect x="26.4941" y="15.2188" width="2" height="6" rx="1" transform="rotate(-10 26.4941 15.2188)" fill="#F5821F"/>
<rect x="1.53613" y="14.8721" width="2" height="6" rx="1" transform="rotate(10 1.53613 14.8721)" fill="#F5821F"/>
<path fill-rule="evenodd" clip-rule="evenodd" d="M14.9735 6C24.9097 6 28.0317 17.0623 28.9169 21.8424C29.1307 22.9966 28.2248 24 27.0509 24H2.94889C1.77764 24 0.87241 23.0012 1.08174 21.8488C1.94943 17.0721 5.03283 6 14.9735 6ZM10.6739 9.04758C10.9039 9.3921 10.811 9.8578 10.4665 10.0878C9.42361 10.7838 8.45392 11.6816 7.70631 12.6562C7.4542 12.9848 6.98339 13.0469 6.65474 12.7948C6.32609 12.5426 6.26404 12.0718 6.51616 11.7432C7.36832 10.6323 8.46056 9.62319 9.63376 8.84014C9.97828 8.61018 10.444 8.70306 10.6739 9.04758ZM9.99987 15C8.34301 15 6.99987 16.3431 6.99987 18C6.99987 19.6569 8.34301 21 9.99987 21H19.9999C21.6567 21 22.9999 19.6569 22.9999 18C22.9999 16.3431 21.6567 15 19.9999 15H9.99987Z" fill="#F5821F"/>
<path fill-rule="evenodd" clip-rule="evenodd" d="M12 18C12 19.1046 11.1046 20 10 20C8.89543 20 8 19.1046 8 18C8 16.8954 8.89543 16 10 16C11.1046 16 12 16.8954 12 18ZM10.1242 17.354C10.3196 17.2854 10.4225 17.0714 10.354 16.876C10.2854 16.6806 10.0714 16.5777 9.87598 16.6462C9.31178 16.8441 8.81349 17.306 8.64036 17.8942C8.58188 18.0929 8.69553 18.3014 8.8942 18.3598C9.09288 18.4183 9.30135 18.3047 9.35984 18.106C9.455 17.7827 9.7528 17.4842 10.1242 17.354Z" fill="#F5821F"/>
<path fill-rule="evenodd" clip-rule="evenodd" d="M21.6001 18C21.6001 19.1046 20.7047 20 19.6001 20C18.4955 20 17.6001 19.1046 17.6001 18C17.6001 16.8954 18.4955 16 19.6001 16C20.7047 16 21.6001 16.8954 21.6001 18ZM19.6242 17.354C19.8196 17.2854 19.9225 17.0714 19.854 16.876C19.7854 16.6806 19.5714 16.5777 19.376 16.6462C18.8118 16.8441 18.3135 17.306 18.1404 17.8942C18.0819 18.0929 18.1955 18.3014 18.3942 18.3598C18.5929 18.4183 18.8014 18.3047 18.8598 18.106C18.955 17.7827 19.2528 17.4842 19.6242 17.354Z" fill="#F5821F"/>
</svg>
