<?xml version="1.0" encoding="utf-8"?>
<!-- Generator: Adobe Illustrator 23.1.1, SVG Export Plug-In . SVG Version: 6.00 Build 0)  -->
<svg version="1.1" id="Laag_1" xmlns="http://www.w3.org/2000/svg" xmlns:xlink="http://www.w3.org/1999/xlink" x="0px" y="0px"
	 viewBox="0 0 150 150" style="enable-background:new 0 0 150 150;" xml:space="preserve">
<style type="text/css">
	.st0{fill:#595656;}
</style>
<g>
	<path class="st0" d="M76.8,22H49c-4.5,0-8.2,3.7-8.2,8.2V58c0,4.5,3.7,8.2,8.2,8.2h27.9c4.5,0,8.2-3.7,8.2-8.2V30.2
		C85,25.7,81.4,22,76.8,22z M60.6,27.9c0-0.5,0.4-0.9,0.9-0.9H67c0.5,0,0.9,0.4,0.9,0.9v4.5c0,0.5-0.4,0.9-0.9,0.9h-5.5
		c-0.5,0-0.9-0.4-0.9-0.9V27.9z M71.5,57.9c0,0.5-0.4,0.9-0.9,0.9H57.9c-0.5,0-0.9-0.4-0.9-0.9v-4.5c0-0.5,0.4-0.9,0.9-0.9h2.7v-9.1
		h-2.7c-0.5,0-0.9-0.4-0.9-0.9v-4.5c0-0.5,0.4-0.9,0.9-0.9H67c0.5,0,0.9,0.4,0.9,0.9v14.5h2.7c0.5,0,0.9,0.4,0.9,0.9
		C71.5,53.4,71.5,57.9,71.5,57.9z"/>
</g>
<g>
	<g>
		<path class="st0" d="M136.8,85.9c-0.3-0.2-0.8-0.4-1.2-0.5c-2.2-0.6-6.5-1.6-6.5-1.6c-2.6-0.6-5.2,1.1-5.8,3.8l-4.9,23.8
			c-0.6,2.7,1.1,5.2,3.8,5.8l6.1,1.3c2.6,0.6,5.2-1.1,5.8-3.8l5.1-23.8c0.3-1.6-0.1-3.1-1.1-4.2C137.6,86.3,137.1,86.1,136.8,85.9z
			 M128.9,113.3c-0.9,1.3-2.7,1.7-4,0.8c-1.3-0.9-1.7-2.7-0.8-4c0.9-1.3,2.7-1.7,4-0.8C129.4,110.2,129.8,112,128.9,113.3z"/>
		<g>
			<path class="st0" d="M97.7,76.4c-3-4.5-9.2-5.3-9.2-5.3c-5.8-0.3-9.2,0.2-11.7,1.3v0l-0.6,0.3c-2.9,1.8-7.7,4.9-15,5.6
				C53.7,79.2,47.1,82,47,82c-2.9,1.7-3,5-2.8,5.5c0.1,0.2,0.3,0.6,1.5,0.7c0.4,0,1.3-0.1,2.6-0.2l0.5,0c21.1-1.5,29.8-1,32,2.1
				L78,92.1c-0.9-1.2-6.7-2.3-29-0.7l-0.5,0c-1.6,0.1-2.7,0.2-3,0.2c-2.8-0.1-4-1.7-4.5-2.6c-0.3-0.7-0.4-1.8-0.3-3
				c-4.3-2-13.5-6.2-20.1-9.4c-8.3-4.1-9.1,4.7-9.1,4.7l2.8,1.3c-1.4,3,0.4,4.8,0.4,4.8c10.7,2.1,39.7,24.6,42.3,25.2
				c2.7,0.6,12.2-2.2,26.1-5.3c13.8-3.1,24.2,1.8,29.5,5.8l5.6-27.5C104.5,82,97.7,76.4,97.7,76.4z"/>
		</g>
	</g>
</g>
</svg>
