<?xml version="1.0" encoding="utf-8"?>
<!-- Generator: Adobe Illustrator 23.1.1, SVG Export Plug-In . SVG Version: 6.00 Build 0)  -->
<svg version="1.1" id="Laag_1" xmlns="http://www.w3.org/2000/svg" xmlns:xlink="http://www.w3.org/1999/xlink" x="0px" y="0px"
	 viewBox="0 0 150 150" style="enable-background:new 0 0 150 150;" xml:space="preserve">
<style type="text/css">
	.st0{fill:#FFFFFF;}
</style>
<g>
	<polygon class="st0" points="64.24,60.95 52.47,48.18 66.2,48.18 66.2,22.65 85.82,39.06 111.32,19 97.59,55.48 95.63,42.71 
		87.78,48.18 74.05,37.24 72.09,53.66 62.28,53.66 	"/>
	<path class="st0" d="M52.29,70.2c-11.29-9.93-19.64-17.38-25.11-22.03c-3.87-3.3-6.43-3.63-7.77-3.63h-8.14v8.61h6.7
		c2.24,0,4.65,0.95,6.24,2.27c2.23,1.85,11.15,9.67,14.65,12.8c3.14,2.8,1.69,3.39-0.62,3.39c0,0-12.66,0.01-26.97,0.01v32.47h30.11
		c2.39,6.3,8.84,10.83,16.45,10.83c7.96,0,14.66-4.96,16.77-11.72c2.81-1.79,6.52-5.81,6.52-7.61V80.32
		C81.12,76.17,71.93,73.8,52.29,70.2z M57.83,106.78c-4.82,0-8.74-3.64-8.74-8.12c0-4.47,3.92-8.12,8.74-8.12
		c4.81,0,8.73,3.64,8.73,8.12C66.56,103.14,62.64,106.78,57.83,106.78z"/>
	<path class="st0" d="M138.79,71.6H117.4c-2.65,0.01-3.9-1.41-1.32-4.73c2.25-2.91,7.57-9.3,8.82-10.92c1.63-2.1,2.67-2.8,5.54-2.8
		h8.35v-8.61h-10.84c-3.77,0-5.84,0.65-7.77,3.63c-1.93,2.98-12.49,14.66-14.86,18.58c-15.68,3.04-17.97,5.81-17.97,10.14v18.68
		c0,2.34,6.32,8.5,8.74,8.5h3.92c2.4,6.3,8.84,10.83,16.45,10.83c7.6,0,14.05-4.53,16.45-10.83h5.87V71.6z M116.46,106.78
		c-4.82,0-8.73-3.64-8.73-8.12c0-4.47,3.92-8.12,8.73-8.12c4.81,0,8.73,3.64,8.73,8.12C125.19,103.14,121.28,106.78,116.46,106.78z"
		/>
</g>
</svg>
